fable::ISF2020
…
# Tidy temporal data structure

### Domestic tourism in Australia

```r
library(tsibble)
tourism
```

```
#> # A tsibble: 24,320 x 5 [1Q]
#> # Key:       Region, State, Purpose [304]
#>    Quarter Region   State           Purpose  Trips
#>      <qtr> <chr>    <chr>           <chr>    <dbl>
#>  1 1998 Q1 Adelaide South Australia Business  135.
#>  2 1998 Q2 Adelaide South Australia Business  110.
#>  3 1998 Q3 Adelaide South Australia Business  166.
#>  4 1998 Q4 Adelaide South Australia Business  127.
#>  5 1999 Q1 Adelaide South Australia Business  137.
#>  6 1999 Q2 Adelaide South Australia Business  200.
#>  7 1999 Q3 Adelaide South Australia Business  169.
#>  8 1999 Q4 Adelaide South Australia Business  134.
#>  9 2000 Q1 Adelaide South Australia Business  154.
#> 10 2000 Q2 Adelaide South Australia Business  169.
#> # … with 24,310 more rows
```
…
# A peak at the features

### Compute features relating to STL decompositions

```r
library(feasts)
tourism_features <- tourism %>% 
  features(Trips, feature_set(tags = "stl"))
```

```
#> # A tibble: 304 x 12
#>    Region State Purpose trend_strength seasonal_streng… seasonal_peak_y… seasonal_trough… spikiness linearity curvature
#>    <chr>  <chr> <chr>            <dbl>            <dbl>            <dbl>            <dbl>     <dbl>     <dbl>     <dbl>
#>  1 Adela… Sout… Busine…          0.451            0.380                3                1   1.62e+2    -5.51     71.4  
#>  2 Adela… Sout… Holiday          0.541            0.601                1                3   9.95e+0    48.9      78.2  
#>  3 Adela… Sout… Other            0.743            0.189                2                1   2.28e+0    95.0      43.4  
#>  4 Adela… Sout… Visiti…          0.433            0.446                1                3   6.01e+1    34.9      71.1  
#>  5 Adela… Sout… Busine…          0.453            0.140                3                1   1.18e-1     0.944    -3.30 
#>  6 Adela… Sout… Holiday          0.512            0.244                2                1   1.92e-1    10.4      23.8  
#>  7 Adela… Sout… Other            0.584            0.374                2                2   5.02e-4     4.29      3.21 
#>  8 Adela… Sout… Visiti…          0.481            0.228                0                3   7.56e+0    34.3      -0.587
#>  9 Alice… Nort… Busine…          0.526            0.224                0                1   1.79e-1    23.8      19.6  
#> 10 Alice… Nort… Holiday          0.377            0.827                3                1   8.13e-1   -19.6      10.3  
#> # … with 294 more rows, and 2 more variables: stl_e_acf1 <dbl>, stl_e_acf10 <dbl>
```
…
```r
library(dplyr)
holiday_aus <- tourism %>% 
  filter(Purpose == "Holiday") %>% 
  summarise(Trips = sum(Trips))

holiday_aus %>% 
  autoplot(Trips)
```

.flex-row[

```
#> # A tsibble: 80 x 2 [1Q]
#>    Quarter  Trips
#>      <qtr>  <dbl>
#>  1 1998 Q1 11806.
#>  2 1998 Q2  9276.
#>  3 1998 Q3  8642.
#>  4 1998 Q4  9300.
#>  5 1999 Q1 11172.
#>  6 1999 Q2  9608.
#>  7 1999 Q3  8914.
#>  8 1999 Q4  9026.
#>  9 2000 Q1 11071.
#> 10 2000 Q2  9196.
#> # … with 70 more rows
```
…
### Look at the data

<br>

.left-code[

```r
*holiday_aus
```
]
.right-plot[

```
#> # A tsibble: 80 x 2 [1Q]
#>    Quarter  Trips
#>      <qtr>  <dbl>
#>  1 1998 Q1 11806.
#>  2 1998 Q2  9276.
#>  3 1998 Q3  8642.
#>  4 1998 Q4  9300.
#>  5 1999 Q1 11172.
#>  6 1999 Q2  9608.
#>  7 1999 Q3  8914.
#>  8 1999 Q4  9026.
#>  9 2000 Q1 11071.
#> 10 2000 Q2  9196.
#> # … with 70 more rows
```
…
